{
   "hotkeys_vector" : [
      {
         "alt" : 2,
         "button_as_string" : "Pause",
         "button_code" : 19,
         "capslock" : 2,
         "ctrl" : 2,
         "events" : [ "NeutralManager.set_pause_state(true)" ],
         "insert" : 2,
         "keyboard" : true,
         "name" : "pause_unapuse_bot",
         "numlock" : 2,
         "scrolllock" : 2,
         "shift" : 2,
         "state" : true
      },
      {
         "alt" : 2,
         "button_as_string" : "1",
         "button_code" : 49,
         "capslock" : 2,
         "ctrl" : 1,
         "events" : [
            "NeutralManager.set_alerts_state(not NeutralManager.get_alerts_state())"
         ],
         "insert" : 2,
         "keyboard" : true,
         "name" : "pause_unpause_spells",
         "numlock" : 2,
         "scrolllock" : 2,
         "shift" : 2,
         "state" : true
      },
      {
         "alt" : 2,
         "button_as_string" : "2",
         "button_code" : 50,
         "capslock" : 2,
         "ctrl" : 1,
         "events" : [
            "NeutralManager.set_hunter_state(not NeutralManager.get_hunter_state())"
         ],
         "insert" : 2,
         "keyboard" : true,
         "name" : "pause_unpause_hunter",
         "numlock" : 2,
         "scrolllock" : 0,
         "shift" : 2,
         "state" : true
      },
      {
         "alt" : 2,
         "button_as_string" : "3",
         "button_code" : 51,
         "capslock" : 2,
         "ctrl" : 1,
         "events" : [
            "NeutralManager.set_looter_state(not NeutralManager.get_alerts_state())\r\n"
         ],
         "insert" : 2,
         "keyboard" : true,
         "name" : "pause_unpause_looter",
         "numlock" : 2,
         "scrolllock" : 0,
         "shift" : 2,
         "state" : true
      },
      {
         "alt" : 2,
         "button_as_string" : "4",
         "button_code" : 52,
         "capslock" : 2,
         "ctrl" : 1,
         "events" : [
            "NeutralManager.set_lua_state(not NeutralManager.get_lua_state())\r\n"
         ],
         "insert" : 2,
         "keyboard" : true,
         "name" : "pause_unpause_lua",
         "numlock" : 2,
         "scrolllock" : 2,
         "shift" : 2,
         "state" : true
      },
      {
         "alt" : 2,
         "button_as_string" : "5",
         "button_code" : 53,
         "capslock" : 2,
         "ctrl" : 1,
         "events" : [
            "NeutralManager.set_waypointer_state(not NeutralManager.get_waypointer_state())\r\n"
         ],
         "insert" : 2,
         "keyboard" : true,
         "name" : "pause_unpause_waypointer",
         "numlock" : 2,
         "scrolllock" : 2,
         "shift" : 2,
         "state" : true
      }
   ]
}
