--Edite aqui de acordo com sua necessidade <<>> Edit here following that you want--

account = "put your acc here"
password = "put your password here"
num_on_list = 1 --> character order in the list from the top going down
list_of_bags_or_backpacks = {"purple backpack","red backpack"}; -- Lista Das Bags<<<>>> Bags List


--===============================================================================--


looged = islogged();
if looged == false then
	--LOGIN PART
	while islogged() == false do
		login(account,password,num_on_list);
		Sleep(1500);
	end
	--SECURE REOPEN BACKPACKS PART
	-- dont touch down this only if you really know what's doing or if u wanna to learn XD.
	main_bp_name_or_id = idmainbptibia();
	did_reopen = false;
	while did_reopen == false do
		if islogged() == false then
		if is_secure_move() then
			
			did_reopen = true;
			
			for i=1,table.getn(list_of_bags_or_backpacks),1 do
			
				if bpisopen(list_of_bags_or_backpacks[i]) == false then
					if bpisopen(main_bp_name_or_id) == false then
						openmainbp();
						Sleep(2500);
					end
					if bpisopen(main_bp_name_or_id) then
					
						if bpisopen(list_of_bags_or_backpacks[i]) == false then
							openitem(list_of_bags_or_backpacks[i]);
							Sleep(2500);
						end
					
					end
					
					did_reopen = false;
					
					break;
				end
			end
			
			
			if bpisopen(main_bp_name_or_id) == false then
				openmainbp();
				Sleep(2500);
				did_reopen = false;
			end
		end
	end
end